[api-updater (non-obsolete-error-filter)] 1/12/2021 10:31:13 PM : Starting /Applications/Unity/Hub/Editor/2020.2.1f1/Unity.app/Contents/Tools/ScriptUpdater/APIUpdater.NonObsoleteApiUpdaterDetector.exe
[api-updater (non-obsolete-error-filter)] 
----------------------------------
jit/startup time      : 111.832ms
moved types parse time: 61ms
candidates parse time : 1ms
C# parse time         : 326ms
candidates check time : 121ms
console write time    : 0ms

[api-updater (non-obsolete-error-filter)] 1/12/2021 10:34:34 PM : Starting /Applications/Unity/Hub/Editor/2020.2.1f1/Unity.app/Contents/Tools/ScriptUpdater/APIUpdater.NonObsoleteApiUpdaterDetector.exe
[api-updater (non-obsolete-error-filter)] 
----------------------------------
jit/startup time      : 97.407ms
moved types parse time: 60ms
candidates parse time : 1ms
C# parse time         : 323ms
candidates check time : 195ms
console write time    : 1ms

